Lasso Regression – Machine Learning Course Portfolio
…
• Mean imputation for: all_numeric_predictors()

• Zero variance filter on: all_predictors()

• Correlation filter on: all_numeric_predictors()

• Dummy variables from: all_nominal_predictors()

Let’s apply our recipe to transform the data according to these preprocessing steps.

weapon_carry_recipe %>% 
  prep() %>% 
  bake(new_data = analysis_data) 

# A tibble: 19,595 × 11
   WeaponCarryingSchool AttackedInNeighborhood_X1 Bullying_X1
   <fct>                                    <dbl>       <dbl>
 1 0                                            0           0
 2 0                                            0           1
 3 0                                            0           0
 4 0                                            0           0
 5 0                                            0           0
 6 0                                            1           0
 7 0                                            0           0
 8 0                                            0           0
 9 0                                            0           0
10 0                                            0           0
# ℹ 19,585 more rows
# ℹ 8 more variables: SexualAbuseByOlderPerson_X1 <dbl>,
#   ParentalPhysicalAbuse_X1 <dbl>, ParentSubstanceUse_X1 <dbl>,
#   ParentIncarceration_X1 <dbl>, SchoolConnectedness_X1 <dbl>,
#   ParentalMonitoring_X1 <dbl>, UnfairDisciplineAtSchool_X1 <dbl>,
#   Homelessness_X1 <dbl>
…
Main Arguments:
  penalty = tune()
  mixture = 1

Computational engine: glmnet 

Model Tuning

To find the optimal penalty value, we’ll create a grid of potential values to test. We’ll use 50 different penalty values, evenly spaced on a logarithmic scale.

lambda_grid <- grid_regular(penalty(), levels = 50)
lambda_grid

# A tibble: 50 × 1
    penalty
      <dbl>
 1 1   e-10
 2 1.60e-10
 3 2.56e-10
 4 4.09e-10
 5 6.55e-10
 6 1.05e- 9
 7 1.68e- 9
 8 2.68e- 9
 9 4.29e- 9
10 6.87e- 9
# ℹ 40 more rows
…
lasso_tune <- 
  tune_grid(
  object = weapon_carry_workflow, 
  resamples = analysis_folds,
  grid = lambda_grid, 
  control = control_resamples(event_level = "second")
)

Let’s examine the performance metrics for different penalty values.

lasso_tune %>% 
  collect_metrics()

# A tibble: 150 × 7
    penalty .metric     .estimator  mean     n std_err .config              
      <dbl> <chr>       <chr>      <dbl> <int>   <dbl> <chr>                
 1 1   e-10 accuracy    binary     0.957     5 0.00158 Preprocessor1_Model01
 2 1   e-10 brier_class binary     0.881     5 0.00160 Preprocessor1_Model01
 3 1   e-10 roc_auc     binary     0.688     5 0.00742 Preprocessor1_Model01
 4 1.60e-10 accuracy    binary     0.957     5 0.00158 Preprocessor1_Model02
 5 1.60e-10 brier_class binary     0.881     5 0.00160 Preprocessor1_Model02
 6 1.60e-10 roc_auc     binary     0.688     5 0.00742 Preprocessor1_Model02
 7 2.56e-10 accuracy    binary     0.957     5 0.00158 Preprocessor1_Model03
 8 2.56e-10 brier_class binary     0.881     5 0.00160 Preprocessor1_Model03
 9 2.56e-10 roc_auc     binary     0.688     5 0.00742 Preprocessor1_Model03
10 4.09e-10 accuracy    binary     0.957     5 0.00158 Preprocessor1_Model04
# ℹ 140 more rows
…
weapon_fit

Model Evaluation

Let’s examine the model’s predictions on the training data.

weapon_pred <- 
  augment(weapon_fit, analysis_train) |> 
  select(WeaponCarryingSchool, .pred_class, .pred_1, .pred_0)

weapon_pred

# A tibble: 14,696 × 4
   WeaponCarryingSchool .pred_class .pred_1 .pred_0
   <fct>                <fct>         <dbl>   <dbl>
 1 0                    0            0.0368   0.963
 2 0                    0            0.0410   0.959
 3 0                    0            0.0253   0.975
 4 0                    0            0.0325   0.968
 5 0                    0            0.125    0.875
 6 0                    0            0.0368   0.963
 7 0                    0            0.0208   0.979
 8 0                    0            0.0208   0.979
 9 0                    0            0.0458   0.954
10 0                    0            0.0529   0.947
# ℹ 14,686 more rows
…
