Logistic Regression – Machine Learning Course Portfolio
…
Model Evaluation

weapon_pred <- 
  augment(mod_1, analysis_train) |> 
  select(WeaponCarryingSchool, .pred_class, .pred_1, .pred_0)

weapon_pred

# A tibble: 14,696 × 4
   WeaponCarryingSchool .pred_class .pred_1 .pred_0
   <fct>                <fct>         <dbl>   <dbl>
 1 0                    0            0.0360   0.964
 2 0                    0            0.0412   0.959
 3 0                    0            0.0241   0.976
 4 0                    0            0.0317   0.968
 5 0                    0            0.128    0.872
 6 0                    0            0.0360   0.964
 7 0                    0            0.0201   0.980
 8 0                    0            0.0201   0.980
 9 0                    0            0.0471   0.953
10 0                    0            0.0531   0.947
# ℹ 14,686 more rows
…
